…
## Examples

``` r
make_PPR_data(
  data = sample_raw_eEPSC_df,
  include_all_treatments = "yes",
  list_of_treatments = NULL,
  PPR_min = 0,
  PPR_max = 5,
  baseline_interval = "t0to5",
  post_hormone_interval = "t20to25",
  treatment_colour_theme = sample_treatment_names_and_colours
)
#> # A tibble: 2,205 × 25
#> # Groups:   letter [19]
#>    letter synapses  sex   treatment  time ID          P1    P2     X     Y   age
#>    <fct>  <fct>     <fct> <fct>     <dbl> <fct>    <dbl> <dbl> <dbl> <dbl> <dbl>
#>  1 AO     Glutamate Male  Control    0    23623002  17.4  78.4    NA    NA    39
#>  2 AO     Glutamate Male  Control    0.08 23623002  24.1  58.9    NA    NA    39
#>  3 AO     Glutamate Male  Control    0.17 23623002  35.6  60.0    NA    NA    39
#>  4 AO     Glutamate Male  Control    0.25 23623002  15.8  32.3    NA    NA    39
#>  5 AO     Glutamate Male  Control    0.33 23623002  53.9  26.4    NA    NA    39
#>  6 AO     Glutamate Male  Control    0.42 23623002  45.5  74.8    NA    NA    39
#>  7 AO     Glutamate Male  Control    0.5  23623002  28.1  69.6    NA    NA    39
#>  8 AO     Glutamate Male  Control    0.58 23623002  27.8  62.0    NA    NA    39
#>  9 AO     Glutamate Male  Control    0.67 23623002  60.0  52.7    NA    NA    39
#> 10 AO     Glutamate Male  Control    0.75 23623002  46.9  60.3    NA    NA    39
#> # ℹ 2,195 more rows
#> # ℹ 14 more variables: animal <dbl>, category <fct>, cell <chr>, notes <lgl>,
#> #   days_alone <fct>, animal_or_slicing_problems <fct>, R_a <chr>, PPR <dbl>,
#> #   interval <fct>, baseline_range <lgl>, baseline_mean <dbl>,
#> #   P1_transformed <dbl>, P2_transformed <dbl>, state <chr>
```
