Prune and summarize raw current data per minute — make_pruned_EPSC_data • patchclampplotteR
…
make_normalized_EPSC_data() for a description of how baseline
normalization works.

    Examples

make_pruned_EPSC_data(
  data = sample_raw_eEPSC_df,
  current_type = "eEPSC",
  min_time_value = 0,
  max_time_value = 25,
  baseline_length = 5,
  interval_length = 1
)
#> $individual_cells
#> # A tibble: 473 × 14
#>    category letter sex   treatment interval_pruned mean_P1 sd_P1     n    se
#>    <fct>    <fct>  <fct> <fct>     <fct>             <dbl> <dbl> <int> <dbl>
#>  1 2        AO     Male  Control   t0to1             36.4  13.8     13 3.83 
#>  2 2        AO     Male  Control   t1to2             38.1  21.4     12 6.18 
#>  3 2        AO     Male  Control   t2to3             39.4  22.2     12 6.41 
#>  4 2        AO     Male  Control   t3to4             39.2  18.5     12 5.34 
#>  5 2        AO     Male  Control   t4to5             30.8  19.7     12 5.69 
#>  6 2        AO     Male  Control   t5to6             21.3  15.7     12 4.52 
#>  7 2        AO     Male  Control   t6to7             13.6  17.4     12 5.01 
#>  8 2        AO     Male  Control   t7to8             14.4  16.5     12 4.77 
#>  9 2        AO     Male  Control   t8to9              5.68  2.00    12 0.579
#> 10 2        AO     Male  Control   t9to10             7.45  5.84    12 1.69 
#> # ℹ 463 more rows
#> # ℹ 5 more variables: cv <dbl>, cv_inverse_square <dbl>, time <dbl>,
#> #   baseline_mean <dbl>, synapses <fct>
…
#>  8 FT     <dbl [25]>    
#>  9 FX     <dbl [25]>    
#> 10 GF     <dbl [25]>    
#> 11 GI     <dbl [25]>    
#> 12 GK     <dbl [25]>    
#> 13 GR     <dbl [25]>    
#> 14 GX     <dbl [25]>    
#> 15 HB     <dbl [25]>    
#> 16 HC     <dbl [25]>    
#> 17 HG     <dbl [23]>    
#> 18 HN     <dbl [25]>    
#> 19 L      <dbl [25]>    
#> 
#> $all_cells
#> # A tibble: 198 × 10
#>    category interval_pruned sex    treatment   mean_P1_all_cells sd_P1_all_cells
#>    <fct>    <fct>           <fct>  <fct>                   <dbl>           <dbl>
#>  1 2        t0to1           Female Control                 141.            NA   
#>  2 2        t0to1           Female HNMPA                   117.            11.0 
#>  3 2        t0to1           Female PPP                      97.3           10.2 
#>  4 2        t0to1           Female PPP_and_HN…              94.2           NA   
#>  5 2        t0to1           Male   Control                  95.9           11.2 
#>  6 2        t0to1           Male   HNMPA                   123.            21.5 
#>  7 2        t0to1           Male   PPP                     110.            13.6 
#>  8 2        t0to1           Male   PPP_and_HN…             116.             4.90
#>  9 2        t1to2           Female Control                 104.            NA   
#> 10 2        t1to2           Female HNMPA                    96.0            1.74
#> # ℹ 188 more rows
#> # ℹ 4 more variables: n <int>, se_P1_all_cells <dbl>, cv_P1_all_cells <dbl>,
#> #   time <dbl>
#> 

make_pruned_EPSC_data(
  data = sample_raw_sEPSC_df,
  current_type = "sEPSC",
  min_time_value = 0,
  max_time_value = 25,
  baseline_length = 5,
  interval_length = 1
)
#> $individual_cells
#> # A tibble: 348 × 17
#> # Groups:   letter [14]
#>    category letter sex    treatment interval_pruned mean_amplitude
#>    <fct>    <fct>  <fct>  <fct>     <fct>                    <dbl>
#>  1 2        AZ     Female Control   t0to1                    104. 
#>  2 2        AZ     Female Control   t1to2                     98.8
#>  3 2        AZ     Female Control   t2to3                     97.7
#>  4 2        AZ     Female Control   t3to4                    101. 
#>  5 2        AZ     Female Control   t4to5                     98.8
#>  6 2        AZ     Female Control   t5to6                     95.3
#>  7 2        AZ     Female Control   t6to7                     96.8
#>  8 2        AZ     Female Control   t7to8                     97.4
#>  9 2        AZ     Female Control   t8to9                     94.7
#> 10 2        AZ     Female Control   t9to10                    96.9
#> # ℹ 338 more rows
#> # ℹ 11 more variables: mean_raw_amplitude <dbl>, sd_amplitude <dbl>, n <int>,
#> #   frequency <dbl>, se <dbl>, interval <fct>, synapses <fct>, time <dbl>,
#> #   baseline_range <lgl>, baseline_mean_frequency <dbl>,
#> #   frequency_transformed <dbl>
…
#>  3 BO     <dbl [25]>                 
#>  4 BT     <dbl [25]>                 
#>  5 CZ     <dbl [25]>                 
#>  6 FT     <dbl [25]>                 
#>  7 FX     <dbl [25]>                 
#>  8 GF     <dbl [25]>                 
#>  9 GI     <dbl [25]>                 
#> 10 GR     <dbl [25]>                 
#> 11 GX     <dbl [25]>                 
#> 12 HC     <dbl [25]>                 
#> 13 HG     <dbl [23]>                 
#> 14 L      <dbl [25]>                 
#> 
#> $all_cells
#> # A tibble: 198 × 19
#>    category interval_pruned sex    treatment     mean_all_amplitude
#>    <fct>    <fct>           <fct>  <fct>                      <dbl>
#>  1 2        t0to1           Female Control                    104. 
#>  2 2        t0to1           Female HNMPA                      103. 
#>  3 2        t0to1           Female PPP                        101. 
#>  4 2        t0to1           Female PPP_and_HNMPA              106. 
#>  5 2        t0to1           Male   Control                     91.8
#>  6 2        t0to1           Male   HNMPA                      101. 
#>  7 2        t0to1           Male   PPP                        107. 
#>  8 2        t0to1           Male   PPP_and_HNMPA              105. 
#>  9 2        t1to2           Female Control                     98.8
#> 10 2        t1to2           Female HNMPA                      110. 
#> # ℹ 188 more rows
#> # ℹ 14 more variables: mean_all_raw_amplitude <dbl>, sd_all_amplitude <dbl>,
#> #   n <int>, se_amplitude <dbl>, sd_all_raw_amplitude <dbl>,
#> #   se_raw_amplitude <dbl>, mean_all_frequency <dbl>, sd_all_frequency <dbl>,
#> #   se_frequency <dbl>, mean_all_raw_frequency <dbl>,
#> #   sd_all_raw_frequency <dbl>, se_raw_frequency <dbl>, time <dbl>,
#> #   interval <fct>
…
