Make dataframe with variance measures — make_variance_data • patchclampplotteR
…
mean_VMR The mean variance-to-mean ratio within a specific state.

    Examples

make_variance_data(
  data = sample_summary_eEPSC_df,
  df_category = 2,
  include_all_treatments = "yes",
  list_of_treatments = NULL,
  baseline_interval = "t0to5",
  post_hormone_interval = "t20to25",
  treatment_colour_theme = sample_treatment_names_and_colours,
  save_output_as_RDS = "no"
)
#> # A tibble: 38 × 23
#> # Groups:   treatment, state [8]
#>    category letter sex    treatment interval mean_P1_transformed mean_P1_raw
#>    <fct>    <fct>  <fct>  <fct>     <fct>                  <dbl>       <dbl>
#>  1 2        AO     Male   Control   t0to5                 100          36.8 
#>  2 2        AO     Male   Control   t20to25                21.3         7.82
#>  3 2        AZ     Female Control   t0to5                 100          44.3 
#>  4 2        AZ     Female Control   t20to25                50.7        22.4 
#>  5 2        BN     Male   Control   t0to5                 100          72.1 
#>  6 2        BN     Male   Control   t20to25                19.1        13.8 
#>  7 2        L      Male   Control   t0to5                 100          77.1 
#>  8 2        L      Male   Control   t20to25                 5.75        4.43
#>  9 2        BO     Male   HNMPA     t0to5                 100          87.7 
#> 10 2        BO     Male   HNMPA     t20to25                24.3        21.3 
#> # ℹ 28 more rows
#> # ℹ 16 more variables: n <int>, sd <dbl>, cv <dbl>, se <dbl>,
#> #   cv_inverse_square <dbl>, variance <dbl>, VMR <dbl>, age <int>,
#> #   animal <dbl>, X <dbl>, Y <dbl>, time <dbl>, synapses <fct>, state <chr>,
#> #   mean_cv_inverse_square <dbl>, mean_VMR <dbl>
…
