…
#> 11 2        GI     Female PPP          28   81    236.  284. Glutama… 0         
#> 12 2        GK     Male   PPP          35   84    249.  574. Glutama… 0         
#> 13 2        GR     Male   PPP          34   90    314.  416. Glutama… 0         
#> 14 2        GX     Male   PPP_and_…    33   97     NA    NA  Glutama… 1         
#> 15 2        HB     Male   PPP_and_…    39  100    133.  590. Glutama… 2         
#> 16 2        HC     Male   PPP_and_…    39  100    173.  576. Glutama… 2         
#> 17 2        HG     Female PPP_and_…    34  103     NA    NA  Glutama… 0         
#> 18 2        HN     Male   PPP_and_…    38  109    289.  400. Glutama… 0         
#> 19 2        L      Male   Control      38    8.5   NA    NA  Glutama… 0         
#> # ℹ 7 more variables: animal_or_slicing_problems <fct>, t0to5 <dbl>,
#> #   t5to10 <dbl>, t10to15 <dbl>, t15to20 <dbl>, t20to25 <dbl>,
#> #   percent_change <dbl>
#> 
#> $summary_data
#> # A tibble: 95 × 22
#>    category letter sex    treatment interval mean_P1_transformed mean_P1_raw
#>    <fct>    <fct>  <fct>  <fct>     <fct>                  <dbl>       <dbl>
#>  1 2        AO     Male   Control   t0to5                  100         36.8 
#>  2 2        AO     Male   Control   t5to10                  34.0       12.5 
#>  3 2        AO     Male   Control   t10to15                 17.7        6.49
#>  4 2        AO     Male   Control   t15to20                 18.6        6.85
#>  5 2        AO     Male   Control   t20to25                 21.3        7.82
#>  6 2        AZ     Female Control   t0to5                  100         44.3 
#>  7 2        AZ     Female Control   t5to10                  74.1       32.8 
#>  8 2        AZ     Female Control   t10to15                 53.7       23.8 
#>  9 2        AZ     Female Control   t15to20                 56.0       24.8 
#> 10 2        AZ     Female Control   t20to25                 50.7       22.4 
#> # ℹ 85 more rows
#> # ℹ 15 more variables: n <dbl>, sd <dbl>, cv <dbl>, se <dbl>,
#> #   cv_inverse_square <dbl>, variance <dbl>, VMR <dbl>, age <dbl>,
#> #   animal <dbl>, X <dbl>, Y <dbl>, time <dbl>, synapses <fct>,
#> #   days_alone <fct>, animal_or_slicing_problems <fct>
…
# Spontaneous Data
# Will return a list of three dataframes

make_summary_EPSC_data(
  data = sample_pruned_sEPSC_df$individual_cells,
  current_type = "sEPSC",
  save_output_as_RDS = "no",
  decimal_places = 2,
  baseline_interval = "t0to5",
  ending_interval = "t20to25"
)
#> $summary_data
#> # A tibble: 35 × 18
#> # Groups:   category, letter, sex, treatment [7]
#>    category letter sex    treatment interval mean_transformed_amplitude
#>    <fct>    <fct>  <fct>  <fct>     <fct>                         <dbl>
#>  1 2        AZ     Female Control   t0to5                         100. 
#>  2 2        AZ     Female Control   t5to10                         96.1
#>  3 2        AZ     Female Control   t10to15                        94.1
#>  4 2        AZ     Female Control   t15to20                        94.8
#>  5 2        AZ     Female Control   t20to25                        86.8
#>  6 2        BO     Male   HNMPA     t0to5                         100. 
#>  7 2        BO     Male   HNMPA     t5to10                         87.0
#>  8 2        BO     Male   HNMPA     t10to15                        81.9
#>  9 2        BO     Male   HNMPA     t15to20                        82.2
#> 10 2        BO     Male   HNMPA     t20to25                        82.0
#> # ℹ 25 more rows
#> # ℹ 12 more variables: mean_raw_amplitude <dbl>,
#> #   sd_transformed_amplitude <dbl>, n <dbl>, se_transformed_amplitude <dbl>,
#> #   mean_transformed_frequency <dbl>, sd_transformed_frequency <dbl>,
#> #   se_transformed_frequency <dbl>, mean_raw_frequency <dbl>, time <dbl>,
#> #   synapses <fct>, days_alone <dbl>, animal_or_slicing_problems <chr>
…
