Summarize current data per 5-min for statistical tests — make_summary_EPSC_data • patchclampplotteR
…
amplitude_transformed A numeric value representing the spontaneous
current amplitude (pA) normalized relative to the mean amplitude during the
recording's baseline. Generated automatically in
make_normalized_EPSC_data().

    Examples

make_summary_EPSC_data(
  data = sample_raw_eEPSC_df,
  current_type = "eEPSC"
)
#> # A tibble: 95 × 20
#>    category letter sex    treatment interval mean_P1_transformed mean_P1_raw
#>    <fct>    <fct>  <fct>  <fct>     <fct>                  <dbl>       <dbl>
#>  1 2        AO     Male   Control   t0to5                  100         36.8 
#>  2 2        AO     Male   Control   t5to10                  34.0       12.5 
#>  3 2        AO     Male   Control   t10to15                 17.7        6.49
#>  4 2        AO     Male   Control   t15to20                 18.6        6.85
#>  5 2        AO     Male   Control   t20to25                 21.3        7.82
#>  6 2        AZ     Female Control   t0to5                  100         44.3 
#>  7 2        AZ     Female Control   t5to10                  74.1       32.8 
#>  8 2        AZ     Female Control   t10to15                 53.7       23.8 
#>  9 2        AZ     Female Control   t15to20                 56.0       24.8 
#> 10 2        AZ     Female Control   t20to25                 50.7       22.4 
#> # ℹ 85 more rows
#> # ℹ 13 more variables: n <int>, sd <dbl>, cv <dbl>, se <dbl>,
#> #   cv_inverse_square <dbl>, variance <dbl>, VMR <dbl>, age <int>,
#> #   animal <dbl>, X <dbl>, Y <dbl>, time <dbl>, synapses <fct>
…
